D:\Eddenn\git\TP-NUAGE\src\main\java\tp\rest\ConnectionHelper.java
D:\Eddenn\git\TP-NUAGE\src\main\java\tp\model\Cage.java
D:\Eddenn\git\TP-NUAGE\src\main\java\tp\model\ObjectFactory.java
D:\Eddenn\git\TP-NUAGE\src\main\java\client\MyClient.java
D:\Eddenn\git\TP-NUAGE\src\main\java\tp\rest\MyServiceTP.java
D:\Eddenn\git\TP-NUAGE\src\main\java\tp\model\Position.java
D:\Eddenn\git\TP-NUAGE\src\main\java\tp\model\AnimalNotFoundException.java
D:\Eddenn\git\TP-NUAGE\src\main\java\tp\model\Animal.java
D:\Eddenn\git\TP-NUAGE\src\main\java\tp\model\Center.java
D:\Eddenn\git\TP-NUAGE\src\main\java\tp\model\package-info.java
